^C:\USERS\WOOJU\DESKTOP\2011181041\SIMPLEGAME\X64\DEBUG\LOADPNG.OBJ|C:\USERS\WOOJU\DESKTOP\2011181041\SIMPLEGAME\X64\DEBUG\OBJECT.OBJ|C:\USERS\WOOJU\DESKTOP\2011181041\SIMPLEGAME\X64\DEBUG\RENDERER.OBJ|C:\USERS\WOOJU\DESKTOP\2011181041\SIMPLEGAME\X64\DEBUG\SCENEMGR.OBJ|C:\USERS\WOOJU\DESKTOP\2011181041\SIMPLEGAME\X64\DEBUG\SIMPLEGAME.OBJ|C:\USERS\WOOJU\DESKTOP\2011181041\SIMPLEGAME\X64\DEBUG\SOUND.OBJ|C:\USERS\WOOJU\DESKTOP\2011181041\SIMPLEGAME\X64\DEBUG\STDAFX.OBJ
/OUT:"C:\USERS\WOOJU\DESKTOP\2011181041\X64\DEBUG\SIMPLEGAME.EXE" /INCREMENTAL /NOLOGO /LIBPATH:.\DEPENDENCIES\X64 KERNEL32.LIB USER32.LIB GDI32.LIB WINSPOOL.LIB COMDLG32.LIB ADVAPI32.LIB SHELL32.LIB OLE32.LIB OLEAUT32.LIB UUID.LIB ODBC32.LIB ODBCCP32.LIB KERNEL32.LIB USER32.LIB GDI32.LIB WINSPOOL.LIB COMDLG32.LIB ADVAPI32.LIB SHELL32.LIB OLE32.LIB OLEAUT32.LIB UUID.LIB ODBC32.LIB ODBCCP32.LIB FREEGLUT.LIB GLEW32.LIB /MANIFEST /MANIFESTUAC:"level='asInvoker' uiAccess='false'" /manifest:embed /DEBUG:FASTLINK /PDB:"C:\USERS\WOOJU\DESKTOP\2011181041\X64\DEBUG\SIMPLEGAME.PDB" /SUBSYSTEM:CONSOLE /TLBID:1 /DYNAMICBASE /NXCOMPAT /IMPLIB:"C:\USERS\WOOJU\DESKTOP\2011181041\X64\DEBUG\SIMPLEGAME.LIB" /MACHINE:X64 X64\DEBUG\LOADPNG.OBJX64\DEBUG\OBJECT.OBJX64\DEBUG\RENDERER.OBJX64\DEBUG\SCENEMGR.OBJX64\DEBUG\SIMPLEGAME.OBJX64\DEBUG\SOUND.OBJX64\DEBUG\STDAFX.OBJ
^C:\USERS\ORIZZ\DESKTOP\2011181041(12.10)\SIMPLEGAME\X64\DEBUG\COLOR.OBJ|C:\USERS\ORIZZ\DESKTOP\2011181041(12.10)\SIMPLEGAME\X64\DEBUG\LOADPNG.OBJ|C:\USERS\ORIZZ\DESKTOP\2011181041(12.10)\SIMPLEGAME\X64\DEBUG\OBJECT.OBJ|C:\USERS\ORIZZ\DESKTOP\2011181041(12.10)\SIMPLEGAME\X64\DEBUG\RENDERER.OBJ|C:\USERS\ORIZZ\DESKTOP\2011181041(12.10)\SIMPLEGAME\X64\DEBUG\SCENEMGR.OBJ|C:\USERS\ORIZZ\DESKTOP\2011181041(12.10)\SIMPLEGAME\X64\DEBUG\SIMPLEGAME.OBJ|C:\USERS\ORIZZ\DESKTOP\2011181041(12.10)\SIMPLEGAME\X64\DEBUG\SOUND.OBJ|C:\USERS\ORIZZ\DESKTOP\2011181041(12.10)\SIMPLEGAME\X64\DEBUG\STDAFX.OBJ|C:\USERS\ORIZZ\DESKTOP\2011181041(12.10)\SIMPLEGAME\X64\DEBUG\VECTOR.OBJ
/OUT:"C:\USERS\ORIZZ\DESKTOP\2011181041(12.10)\X64\DEBUG\SIMPLEGAME.EXE" /INCREMENTAL /NOLOGO /LIBPATH:.\DEPENDENCIES\X64 KERNEL32.LIB USER32.LIB GDI32.LIB WINSPOOL.LIB COMDLG32.LIB ADVAPI32.LIB SHELL32.LIB OLE32.LIB OLEAUT32.LIB UUID.LIB ODBC32.LIB ODBCCP32.LIB KERNEL32.LIB USER32.LIB GDI32.LIB WINSPOOL.LIB COMDLG32.LIB ADVAPI32.LIB SHELL32.LIB OLE32.LIB OLEAUT32.LIB UUID.LIB ODBC32.LIB ODBCCP32.LIB FREEGLUT.LIB GLEW32.LIB /MANIFEST /MANIFESTUAC:"level='asInvoker' uiAccess='false'" /manifest:embed /DEBUG:FASTLINK /PDB:"C:\USERS\ORIZZ\DESKTOP\2011181041(12.10)\X64\DEBUG\SIMPLEGAME.PDB" /SUBSYSTEM:CONSOLE /TLBID:1 /DYNAMICBASE /NXCOMPAT /IMPLIB:"C:\USERS\ORIZZ\DESKTOP\2011181041(12.10)\X64\DEBUG\SIMPLEGAME.LIB" /MACHINE:X64 X64\DEBUG\COLOR.OBJX64\DEBUG\LOADPNG.OBJX64\DEBUG\OBJECT.OBJX64\DEBUG\RENDERER.OBJX64\DEBUG\SCENEMGR.OBJX64\DEBUG\SIMPLEGAME.OBJX64\DEBUG\SOUND.OBJX64\DEBUG\STDAFX.OBJX64\DEBUG\VECTOR.OBJ
^C:\USERS\ORIZZ\DESKTOP\2013184001강진구ㅡ\SIMPLEGAME\X64\DEBUG\COLOR.OBJ|C:\USERS\ORIZZ\DESKTOP\2013184001강진구ㅡ\SIMPLEGAME\X64\DEBUG\LOADPNG.OBJ|C:\USERS\ORIZZ\DESKTOP\2013184001강진구ㅡ\SIMPLEGAME\X64\DEBUG\OBJECT.OBJ|C:\USERS\ORIZZ\DESKTOP\2013184001강진구ㅡ\SIMPLEGAME\X64\DEBUG\RENDERER.OBJ|C:\USERS\ORIZZ\DESKTOP\2013184001강진구ㅡ\SIMPLEGAME\X64\DEBUG\SCENEMGR.OBJ|C:\USERS\ORIZZ\DESKTOP\2013184001강진구ㅡ\SIMPLEGAME\X64\DEBUG\SIMPLEGAME.OBJ|C:\USERS\ORIZZ\DESKTOP\2013184001강진구ㅡ\SIMPLEGAME\X64\DEBUG\SOUND.OBJ|C:\USERS\ORIZZ\DESKTOP\2013184001강진구ㅡ\SIMPLEGAME\X64\DEBUG\STDAFX.OBJ|C:\USERS\ORIZZ\DESKTOP\2013184001강진구ㅡ\SIMPLEGAME\X64\DEBUG\VECTOR.OBJ
/OUT:"C:\USERS\ORIZZ\DESKTOP\2013184001강진구ㅡ\X64\DEBUG\SIMPLEGAME.EXE" /INCREMENTAL /NOLOGO /LIBPATH:.\DEPENDENCIES\X64 KERNEL32.LIB USER32.LIB GDI32.LIB WINSPOOL.LIB COMDLG32.LIB ADVAPI32.LIB SHELL32.LIB OLE32.LIB OLEAUT32.LIB UUID.LIB ODBC32.LIB ODBCCP32.LIB KERNEL32.LIB USER32.LIB GDI32.LIB WINSPOOL.LIB COMDLG32.LIB ADVAPI32.LIB SHELL32.LIB OLE32.LIB OLEAUT32.LIB UUID.LIB ODBC32.LIB ODBCCP32.LIB FREEGLUT.LIB GLEW32.LIB /MANIFEST /MANIFESTUAC:"level='asInvoker' uiAccess='false'" /manifest:embed /DEBUG:FASTLINK /PDB:"C:\USERS\ORIZZ\DESKTOP\2013184001강진구ㅡ\X64\DEBUG\SIMPLEGAME.PDB" /SUBSYSTEM:CONSOLE /TLBID:1 /DYNAMICBASE /NXCOMPAT /IMPLIB:"C:\USERS\ORIZZ\DESKTOP\2013184001강진구ㅡ\X64\DEBUG\SIMPLEGAME.LIB" /MACHINE:X64 X64\DEBUG\COLOR.OBJX64\DEBUG\LOADPNG.OBJX64\DEBUG\OBJECT.OBJX64\DEBUG\RENDERER.OBJX64\DEBUG\SCENEMGR.OBJX64\DEBUG\SIMPLEGAME.OBJX64\DEBUG\SOUND.OBJX64\DEBUG\STDAFX.OBJX64\DEBUG\VECTOR.OBJ
